{
    "DatosEstudiante": [
      {
        "Cedula": "131546825",
        "Apellido": "Espinoza",
        "Nombre": "Gabriela",
        "Semestre": "5",
        "Paralelo": "A"
      
      },
      {
        "Cedula": "131546825",
        "Apellido": "Park",
        "Nombre": "Chanyeol",
        "Semestre": "5",
        "Paralelo": "B"
      },
      {
        "Cedula": "131546825",
        "Apellido": "Do",
        "Nombre": "Kyungsoo",
        "Semestre": "5",
        "Paralelo": "A"
      },
      {
        "Cedula": "131546825",
        "Apellido": "Byun",
        "Nombre": "Baekhyun",
        "Semestre": "5",
        "Paralelo": "A"
      },
      {
        "Cedula": "131546825",
        "Apellido": "Kim",
        "Nombre": "Minseok",
        "Semestre": "5",
        "Paralelo": "A"
      },
      {
        "Cedula": "131546825",
        "Apellido": "Oh",
        "Nombre": "Sehun",
        "Semestre": "5",
        "Paralelo": "B"
      },
      {
        "Cedula": "131546825",
        "Apellido": "Baker",
        "Nombre": "Linus",
        "Semestre": "5",
        "Paralelo": "C"
      },
      {
        "Cedula": "131546825",
        "Apellido": "Parnassus",
        "Nombre": "Arthur",
        "Semestre": "5",
        "Paralelo": "C"
      },
      {
        "Cedula": "131546825",
        "Apellido": "Klunne",
        "Nombre": "Jack",
        "Semestre": "5",
        "Paralelo": "B"
      },
      {
        "Cedula": "131546825",
        "Apellido": "Pierre",
        "Nombre": "Jean",
        "Semestre": "5",
        "Paralelo": "A"
      }
    ]
  }